{
  "images" : [
    {
      "idiom" : "universal",
      "filename" : "watch_tv.png",
      "scale" : "1x"
    },
    {
      "idiom" : "universal",
      "filename" : "watch_tv-1.png",
      "scale" : "2x"
    },
    {
      "idiom" : "universal",
      "filename" : "watch_tv-2.png",
      "scale" : "3x"
    }
  ],
  "info" : {
    "version" : 1,
    "author" : "xcode"
  }
}