{"installed":{"client_id":"913406409388-cohut34ko8nh53abih9g0deg137dhocr.apps.googleusercontent.com",
  "project_id":"preskil-1557819963586",
  "auth_uri":"https://accounts.google.com/o/oauth2/auth",
  "token_uri":"https://oauth2.googleapis.com/token",
  "auth_provider_x509_cert_url":"https://www.googleapis.com/oauth2/v1/certs",
  "redirect_uris":["urn:ietf:wg:oauth:2.0:oob","http://localhost"]}}